CHANNELS, 3, 96, 256, 384, 384, 3, 64, 64, 128, 128, 256, 256, 512, 512, 1024, 256, 512, 1024, 256, 512, 1024, 3, 64, 64, 192, 192, 96, 192, 16, 192, 256, 256, 128, 256, 32, 256, 480, 480, 480, 96, 16, 480, 512, 512, 512, 112, 24, 512, 512, 512, 512, 128, 24, 512, 512, 512, 512, 144, 32, 512, 528, 528, 528, 160, 32, 528, 832, 832, 832, 160, 32, 128, 832, 832, 832, 192, 48, 832
WIDTH, 227, 27, 13, 13, 13, 224, 224, 112, 112, 56, 56, 28, 28, 14, 14, 56, 28, 14, 56, 28, 14, 224, 56, 56, 28, 28, 28, 28, 28, 28, 28, 28, 28, 28, 28, 28, 14, 14, 14, 14, 14, 14, 14, 14, 14, 14, 14, 14, 14, 14, 14, 14, 14, 14, 14, 14, 14, 14, 14, 14, 14, 14, 14, 14, 14, 14, 7, 7, 7, 7, 7, 7, 7, 7, 7, 7, 7, 7
HEIGHT, 227, 27, 13, 13, 13, 224, 224, 112, 112, 56, 56, 28, 28, 14, 14, 56, 28, 14, 56, 28, 14, 224, 56, 56, 28, 28, 28, 28, 28, 28, 28, 28, 28, 28, 28, 28, 14, 14, 14, 14, 14, 14, 14, 14, 14, 14, 14, 14, 14, 14, 14, 14, 14, 14, 14, 14, 14, 14, 14, 14, 14, 14, 14, 14, 14, 14, 7, 7, 7, 7, 7, 7, 7, 7, 7, 7, 7, 7
chw-to-chw, 22322.230769, 9563.148148, 5979.000000, 10583.185185, 8966.333333, 21648.692308, 495462.296296, 113354.461538, 240905.346154, 56457.807692, 112712.115385, 28476.500000, 56331.153846, 14127.961538, 32984.538462, 1772.233278, 52.801996, 57.390156, 953.520967, 10.873219, 8.525445, 108.657043, 96.340595, 7.935753, 13.238922, 13.359972, 31.392735, 118.214732, 2.651879, 88.229513, 10.497981, 10.433386, 40.794081, 224.341119, 2.894230, 8.267338, 78.396141, 30.818732, 30.615712, 2.322060, 10.837852, 34.231651, 32.696311, 37.774019, 31.057031, 2.465326, 2.223616, 56.719268, 35.430775, 40.959943, 10.184355, 3.717191, 2.178467, 18.946915, 29.845190, 223.231175, 34.855389, 16.973862, 2.814977, 15.017869, 178.292575, 15.767232, 29.306532, 2.844565, 2.120081, 23.624497, 12.706555, 11.032276, 12.435434, 2.628499, 1.695903, 2.066958, 40.452885, 8.413950, 6.342348, 2.331399, 1.763777, 17.076090
chw-to-hwc, 103109.760000, 120130.653846, 103273.769231, 101621.384615, 99149.703704, 100281.192308, 22984756.384615, 1573520.555556, 3040058.333333, 863942.962963, 1969068.111111, 583562.269231, 2552025.592593, 879095.280000, 2202323.814815, 142920.440829, 149367.104971, 155946.639698, 97494.869611, 153251.646852, 107986.509948, 387.416520, 661.250420, 651.922295, 327.435756, 428.140704, 121.921305, 353.062219, 38.501093, 939.388603, 1509.360972, 1047.154679, 235.900392, 1373.783507, 448.732470, 1479.122266, 56.932332, 343.136447, 643.573475, 6.805557, 2.252424, 668.041582, 565.340191, 738.036431, 1455.408801, 6.354112, 3.244918, 851.916845, 970.494826, 992.811978, 5049.045706, 832.613641, 2.368526, 887.113090, 844.439566, 6706.774637, 729.043438, 5.136396, 4.572681, 5378.082521, 19.620537, 606.609603, 306.380618, 189.967494, 41.267501, 709.385642, 65.275555, 277.290206, 317.736090, 11.717840, 2.361867, 1.911149, 308.728203, 318.729616, 327.584315, 5.709535, 2.152613, 348.761246
chw-to-hcw, 47547.703704, 21839.111111, 24860.259259, 34149.518519, 36503.703704, 51261.192308, 1340808.629630, 181644.461538, 463947.962963, 84669.884615, 108328.333333, 61561.961538, 62427.423077, 53300.500000, 63648.851852, 1455.098280, 988.914519, 508.610766, 1561.803933, 73.678420, 58.887202, 84.979084, 75.724058, 56.992997, 559.738401, 461.578501, 237.029018, 278.355522, 4.857937, 563.775072, 301.379996, 365.511192, 297.582288, 377.006028, 7.360662, 311.311260, 690.534221, 11.378448, 440.721488, 4.188625, 1.991319, 15.456310, 559.894882, 162.990472, 154.888891, 5.336178, 2.403722, 58.499204, 122.904858, 623.359164, 686.531521, 6.536576, 2.987552, 974.667193, 916.567570, 200.440181, 34.367739, 19.846167, 3.345444, 249.431571, 212.041269, 464.329860, 639.934402, 17.767156, 2.859937, 584.528859, 309.911563, 297.496131, 258.920220, 2.934759, 2.412204, 2.843904, 290.285330, 240.831928, 296.881932, 4.267904, 2.187613, 6.576400
hwc-to-hwc, 31041.703704, 11200.629630, 7338.555556, 10385.346154, 10245.074074, 23646.074074, 418492.384615, 104299.461538, 210575.846154, 52487.961538, 105415.923077, 27865.962963, 52326.653846, 15468.518519, 26376.346154, 146.333771, 16.214867, 20.750567, 108.135461, 86.173284, 38.689103, 304.651963, 64.253282, 12.075795, 32.100408, 351.818217, 39.134670, 26.484785, 2.790469, 321.772129, 25.402396, 345.594003, 107.185251, 55.825946, 10.564713, 61.894446, 194.094422, 189.972507, 43.677152, 3.802603, 2.023738, 174.769611, 195.895763, 75.264594, 207.940178, 48.320188, 2.463079, 162.380463, 236.188401, 155.251117, 52.380879, 9.405079, 2.495741, 64.832716, 158.331485, 119.242710, 118.111803, 5.065020, 2.649484, 201.167413, 205.773048, 218.246077, 188.457152, 17.408487, 2.781223, 262.557913, 28.976900, 30.910065, 26.470675, 4.761817, 0.953419, 2.931330, 33.999607, 27.675495, 29.874742, 3.418364, 1.607026, 33.725505
hwc-to-chw, 77573.296296, 86828.555556, 35056.923077, 42884.307692, 43455.185185, 73297.769231, 20607956.222222, 982914.884615, 2076984.259259, 454292.807692, 684789.962963, 207391.230769, 235977.185185, 79306.076923, 149182.740741, 7455.159361, 314.273033, 1948.014703, 6526.373491, 3117.563783, 2051.597892, 535.993554, 396.249589, 349.730673, 144.983758, 213.191288, 151.771070, 159.930751, 4.289100, 231.381961, 203.985435, 82.350425, 179.020690, 180.023686, 498.354456, 185.612685, 777.301440, 168.268837, 132.087907, 271.364900, 2.062529, 454.246900, 289.165042, 211.956089, 404.584998, 165.756405, 5.379327, 38.975151, 442.991494, 1253.713675, 1281.636040, 29.222435, 4.945242, 443.868840, 215.485031, 323.519386, 1060.273832, 252.812652, 20.356651, 1112.472211, 49.452336, 554.019410, 112.641250, 468.167077, 19.226748, 170.462831, 131.541298, 677.365450, 646.015109, 3.423933, 4.340988, 3.266608, 470.612129, 488.278195, 548.137756, 10.225447, 3.277229, 619.085623
hwc-to-hcw, 80438.333333, 57810.592593, 32459.666667, 39783.925926, 39983.037037, 75098.500000, 2592349.925926, 394739.269231, 906212.703704, 292729.423077, 289840.230769, 126434.192308, 277797.037037, 59120.807692, 129925.888889, 3450.488146, 2190.208940, 1727.004292, 3706.712949, 3702.074473, 1754.610284, 311.164054, 470.751006, 271.133621, 113.162501, 268.468384, 712.790620, 154.477161, 8.425370, 294.478723, 85.831031, 74.975346, 275.520332, 172.960986, 19.493176, 64.687509, 24.070018, 529.690676, 644.846931, 12.265333, 3.093129, 617.998365, 89.634829, 633.147355, 61.786039, 66.566683, 7.920989, 231.626120, 54.802655, 1008.205655, 1068.759091, 10.208068, 4.536036, 1060.069943, 760.178045, 1003.923787, 909.517988, 164.157952, 36.224981, 908.671307, 191.237331, 314.026540, 651.693822, 332.835544, 41.177097, 458.321042, 332.972162, 331.785466, 305.350342, 6.333209, 29.761743, 5.851930, 356.232639, 329.986159, 357.747977, 7.786970, 2.317198, 306.515144
hcw-to-hcw, 30217.846154, 11257.230769, 7257.222222, 10557.851852, 10417.629630, 23065.444444, 418728.884615, 104249.384615, 211147.730769, 52511.481481, 105043.923077, 26904.307692, 52344.692308, 14987.407407, 26362.884615, 137.968652, 10.117899, 38.636525, 40.685076, 87.275819, 2.445096, 306.717912, 194.820871, 339.759794, 436.860833, 391.335021, 70.195696, 125.263779, 3.521196, 88.601968, 26.532737, 264.921358, 243.522287, 46.590917, 10.031931, 103.403077, 239.118282, 155.759481, 190.261445, 2.466203, 1.375237, 181.376994, 49.602026, 191.228115, 163.447667, 9.701777, 2.025093, 203.794510, 190.768281, 170.782877, 207.531286, 8.920115, 2.732386, 78.897719, 153.808594, 14.799083, 75.852274, 3.410626, 2.702943, 62.517554, 215.185984, 146.795726, 12.724515, 18.348852, 2.772056, 214.757987, 24.318890, 28.193760, 29.683901, 3.687495, 2.229640, 2.154737, 25.222971, 29.290014, 29.777457, 4.005420, 2.063897, 28.400452
hcw-to-chw, 58904.185185, 22794.500000, 23714.777778, 33087.296296, 32666.740741, 36830.814815, 1249079.814815, 190620.481481, 463851.777778, 86290.740741, 112852.703704, 58948.230769, 69097.740741, 62329.615385, 59615.444444, 1303.632663, 65.040821, 941.902304, 760.163464, 579.628705, 148.392518, 390.127282, 108.637002, 409.252506, 459.113409, 618.721185, 297.886377, 20.586819, 5.264975, 112.330147, 33.121646, 115.128759, 134.107097, 262.494848, 9.902656, 83.556863, 399.761838, 509.674185, 6.515299, 120.599872, 2.360469, 573.337640, 218.219927, 20.472085, 562.396302, 93.288094, 25.788604, 24.720183, 675.570173, 989.672787, 961.987227, 6.915527, 2.957093, 676.355843, 23.812529, 541.538486, 800.238953, 11.560642, 3.623199, 465.490244, 10.324994, 703.465951, 9.095261, 82.381600, 3.328086, 634.755549, 276.740259, 292.564384, 301.006129, 3.657878, 2.814400, 2.778921, 144.287316, 289.135275, 277.911663, 3.326468, 0.800091, 273.406832
hcw-to-hwc, 103743.384615, 95381.851852, 147568.615385, 89348.884615, 87497.320000, 102111.481481, 23357955.269231, 918479.961538, 2957782.666667, 849493.814815, 1513936.629630, 660590.148148, 2141867.444444, 999351.111111, 1480440.925926, 10827.419145, 15440.556520, 10987.813339, 11740.350406, 16011.626699, 9992.559123, 208.604514, 455.675977, 512.475997, 240.476020, 390.871557, 488.434034, 374.180740, 65.443664, 332.787671, 920.469908, 1304.737445, 138.124137, 1134.196296, 478.905025, 920.039751, 551.541519, 687.315506, 685.340301, 112.063934, 2.263562, 434.787025, 545.885913, 566.068651, 1165.859617, 6.132883, 3.086683, 590.187215, 617.497397, 583.956059, 657.347345, 788.552167, 3.359568, 722.484241, 554.387442, 8792.462985, 544.859578, 7.631043, 9.836317, 7708.011426, 317.018259, 553.951808, 611.909542, 156.773618, 4.643387, 17.434852, 311.493483, 8.459436, 305.116429, 3.640378, 2.485644, 4.587612, 314.700832, 315.462941, 340.896411, 4.835851, 1.791896, 220.420318
